<svg width="32" height="35" viewBox="0 0 32 35" fill="none" xmlns="http://www.w3.org/2000/svg">
<g clip-path="url(#clip0)">
<path d="M7.451 23.2339C4.51195 20.1635 2.26295 16.0196 2.13516 9.35447C4.63974 8.28107 6.40316 5.13573 6.70985 2.36483H25.2897C25.5964 5.13573 27.3598 8.30603 29.8644 9.35447C29.8133 11.8009 29.5066 13.7979 28.9188 15.745L30.2989 17.093C31.1422 14.5717 31.5767 12.0505 31.5767 8.78033V8.13129L30.9378 7.95655C28.6888 7.35743 26.9509 4.01239 26.9509 1.51609V0.692308H5.04865V1.54105C5.04865 4.03735 3.31078 7.3824 1.06177 7.98151L0.422852 8.13129V8.78033C0.422852 16.394 2.95298 21.0122 6.24982 24.4571L7.451 23.2339Z" fill="white"/>
<path d="M15.9874 34.4423L9.21484 27.8271L11.2338 25.855L15.9874 30.4982L26.798 19.9638L28.7914 21.9358L15.9874 34.4423Z" fill="#7DD4FF"/>
</g>
<defs>
<clipPath id="clip0">
<rect width="31.1538" height="33.75" fill="white" transform="translate(0.422852 0.692308)"/>
</clipPath>
</defs>
</svg>
